[ {
  "buildOrder" : 14,
  "reportUrl" : "http://localhost:8080/job/batch5/14/allure",
  "reportName" : "AllureReport",
  "data" : {
    "duration" : 4996
  }
}, {
  "buildOrder" : 13,
  "reportUrl" : "http://localhost:8080/job/batch5/13/allure",
  "reportName" : "AllureReport",
  "data" : {
    "duration" : 4917
  }
}, {
  "buildOrder" : 12,
  "reportUrl" : "http://localhost:8080/job/batch5/12/allure",
  "reportName" : "AllureReport",
  "data" : {
    "duration" : 4936
  }
}, {
  "buildOrder" : 11,
  "reportUrl" : "http://localhost:8080/job/batch5/11/allure",
  "reportName" : "AllureReport",
  "data" : {
    "duration" : 4944
  }
}, {
  "buildOrder" : 10,
  "reportUrl" : "http://localhost:8080/job/batch5/10/allure",
  "reportName" : "AllureReport",
  "data" : {
    "duration" : 4980
  }
}, {
  "buildOrder" : 9,
  "reportUrl" : "http://localhost:8080/job/batch5/9/allure",
  "reportName" : "AllureReport",
  "data" : {
    "duration" : 4964
  }
}, {
  "buildOrder" : 8,
  "reportUrl" : "http://localhost:8080/job/batch5/8/allure",
  "reportName" : "AllureReport",
  "data" : {
    "duration" : 360815685
  }
}, {
  "buildOrder" : 7,
  "reportUrl" : "http://localhost:8080/job/batch5/7/allure",
  "reportName" : "AllureReport",
  "data" : {
    "duration" : 360580171
  }
} ]