[ {
  "name" : "Jenkins",
  "type" : "jenkins",
  "url" : "http://localhost:8080/",
  "buildOrder" : 14,
  "buildName" : "batch5 #14",
  "buildUrl" : "http://localhost:8080/job/batch5/14/",
  "reportName" : "AllureReport",
  "reportUrl" : "http://localhost:8080/job/batch5/14/allure"
} ]