[ {
  "uid" : "beba864c8b4dcf06",
  "name" : "this is to verify with wrong info",
  "time" : {
    "start" : 1625298617432,
    "stop" : 1625298622428,
    "duration" : 4996
  },
  "status" : "passed",
  "severity" : "blocker"
}, {
  "uid" : "129a7f54b80117b9",
  "name" : "This test case is to verify the login function",
  "time" : {
    "start" : 1625298617433,
    "stop" : 1625298617463,
    "duration" : 30
  },
  "status" : "passed",
  "severity" : "blocker"
} ]